<?xml version="1.0" encoding="UTF-8" standalone="no"?>
<svg
		xmlns:dc="http://purl.org/dc/elements/1.1/"
		xmlns:cc="http://creativecommons.org/ns#"
		xmlns:rdf="http://www.w3.org/1999/02/22-rdf-syntax-ns#"
		xmlns="http://www.w3.org/2000/svg"
		id="proker-logo"
		version="1.1"
		viewBox="0 0 748.82843 211.15297"
		height="211.15297mm"
		width="748.82843mm">
	<title id="proker-title">Proker</title>
	<defs id="proker-defs"/>
	<metadata id="proker-metadata">
		<rdf:RDF>
			<cc:Work rdf:about="">
				<dc:format>image/svg+xml</dc:format>
				<dc:type rdf:resource="http://purl.org/dc/dcmitype/StillImage"/>
				<dc:title>Proker</dc:title>
				<dc:creator>
					<cc:Agent>
						<dc:title>Michał Janiak</dc:title>
					</cc:Agent>
				</dc:creator>
			</cc:Work>
		</rdf:RDF>
	</metadata>
	<g transform="translate(11.185054,-19.423508)" id="proker-layer">
		<g transform="translate(23.741358,63.767855)" id="proker-icon">
			<path
					d="m 126.17396,-24.344347 -9.18238,14.8208024 a 46.535949,46.535949 0 0 0 -12.31088,1.620573 L 91.975007,-19.841779 80.059459,-12.962096 84.046296,4.0099964 a 46.535949,46.535949 0 0 0 -4.758883,5.538163 L 102.14907,22.747354 a 20.488034,20.488034 0 0 1 19.94039,-5.543849 20.488034,20.488034 0 0 1 14.5805,25.019145 l -0.0248,0.09198 a 20.488034,20.488034 0 0 1 -14.78928,14.565 v 26.398393 a 46.535949,46.535949 0 0 0 7.17476,-1.35134 l 12.7062,11.93933 11.91555,-6.87969 -3.98684,-16.972093 a 46.535949,46.535949 0 0 0 7.55872,-9.852113 l 17.42684,-0.541567 3.56102,-13.290661 -14.8208,-9.18187 A 46.535949,46.535949 0 0 0 161.77076,24.837144 L 173.70956,12.130942 166.82988,0.21539044 149.85779,4.2022264 a 46.535949,46.535949 0 0 0 -9.8516,-7.559738 l -0.54208,-17.4258104 z"
					style="display:inline;fill:#000000;fill-opacity:1;fill-rule:evenodd;stroke:none;stroke-width:0.294074;stroke-opacity:1"
					id="proker-gear"/>
			<rect
					style="fill:#000000;stroke:none;stroke-width:0.354232"
					id="proker-box-top"
					width="67.424248"
					height="67.424248"
					x="31.280985"
					y="-24.681259"
					transform="matrix(0.86602534,0.50000012,-0.86602534,0.50000012,0,0)"/>
			<rect
					transform="matrix(-1.3581527e-7,1,-0.86602547,-0.49999988,0,0)"
					y="-50.188732"
					x="54.290009"
					height="67.424248"
					width="67.424248"
					id="proker-box-bottom-left"
					style="fill:#000000;stroke:none;stroke-width:0.354232"/>
			<rect
					transform="matrix(1.3581527e-7,1,0.86602547,-0.49999988,0,0)"
					y="61.735706"
					x="110.25223"
					height="67.424248"
					width="67.424248"
					id="proker-box-bottom-right"
					style="fill:#000000;stroke:none;stroke-width:0.354232"/>
		</g>
		<g
				style="font-style:normal;font-weight:normal;font-size:10.5833px;line-height:1.25;font-family:sans-serif;white-space:pre;shape-inside:url(#rect844);fill:#000000;fill-opacity:1;stroke:none"
				id="proker-text"
				transform="translate(-5.9762207,-65.746037)"
				aria-label="Proker">
			<path
					id="proker-letter-1"
					style="font-style:normal;font-variant:normal;font-weight:normal;font-stretch:normal;font-size:176.389px;font-family:Catamaran;-inkscape-font-specification:'Catamaran, @wght=400';font-variant-ligatures:normal;font-variant-caps:normal;font-variant-numeric:normal;font-variant-east-asian:normal;font-variation-settings:'wght' 400"
					d="m 276.3715,251.86223 v -45.33197 h 16.93335 q 9.52501,0 17.81529,-2.11667 8.29028,-2.29306 14.64029,-6.87917 6.35,-4.58612 10.05417,-11.81807 3.70417,-7.23194 3.70417,-16.93334 0,-13.22918 -5.82084,-21.34307 -5.82084,-8.11389 -15.87501,-11.81806 -10.05417,-3.70417 -22.57779,-3.70417 h -32.63197 v 119.94452 z m 18.87363,-108.12646 q 9.17223,0 15.69862,2.46945 6.70278,2.29305 10.40695,7.76111 3.88056,5.46806 3.88056,15.16946 -0.17639,9.17223 -4.40973,14.81667 -4.05694,5.64445 -11.1125,8.29029 -7.05556,2.46944 -15.87501,2.46944 H 276.3715 v -50.97642 z"/>
			<path
					id="proker-letter-2"
					style="font-style:normal;font-variant:normal;font-weight:normal;font-stretch:normal;font-size:176.389px;font-family:Catamaran;-inkscape-font-specification:'Catamaran, @wght=400';font-variant-ligatures:normal;font-variant-caps:normal;font-variant-numeric:normal;font-variant-east-asian:normal;font-variation-settings:'wght' 400"
					d="M 370.29865,251.86223 V 192.9483 q 3.88056,-3.88055 8.99584,-7.40833 5.11528,-3.52778 10.75973,-5.82084 5.82084,-2.29306 10.75973,-2.29306 l -3.35139,-11.11251 q -4.58611,0 -10.05417,2.29306 -5.29167,2.29306 -10.23057,5.64445 -4.7625,3.175 -8.11389,5.82084 l -4.23334,-13.75835 h -8.29028 v 85.54867 z"/>
			<path
					id="proker-letter-3"
					style="font-style:normal;font-variant:normal;font-weight:normal;font-stretch:normal;font-size:176.389px;font-family:Catamaran;-inkscape-font-specification:'Catamaran, @wght=400';font-variant-ligatures:normal;font-variant-caps:normal;font-variant-numeric:normal;font-variant-east-asian:normal;font-variation-settings:'wght' 400"
					d="m 449.18312,254.15529 q -12.70001,0.17639 -21.87223,-5.64445 -9.17223,-5.99723 -14.11112,-16.0514 -4.76251,-10.23056 -4.76251,-23.63613 0.17639,-13.05278 5.11528,-23.10696 5.11528,-10.05417 14.4639,-15.87501 9.52501,-5.82083 22.40141,-5.82083 12.87639,0 22.04862,5.64444 9.17223,5.64445 14.11112,15.69863 4.93889,10.05417 4.93889,23.9889 0,13.05279 -5.29167,23.10696 -5.11528,10.05417 -14.64028,15.87501 -9.34862,5.82084 -22.40141,5.82084 z m 0.35278,-11.81806 q 8.81945,0 14.99307,-4.40973 6.17361,-4.40972 9.34861,-11.81806 3.35139,-7.40834 3.35139,-16.58057 0,-9.70139 -3.175,-17.28612 -2.99861,-7.58473 -8.99584,-11.99445 -5.82083,-4.40973 -14.81667,-4.40973 -8.64306,0 -14.81668,4.40973 -6.17362,4.40972 -9.52501,11.81806 -3.175,7.40834 -3.35139,16.58057 0,9.525 2.99862,17.28612 2.99861,7.58473 8.99583,11.99445 6.17362,4.40973 14.99307,4.40973 z"/>
			<path
					id="proker-letter-4"
					style="font-style:normal;font-variant:normal;font-weight:normal;font-stretch:normal;font-size:176.389px;font-family:Catamaran;-inkscape-font-specification:'Catamaran, @wght=400';font-variant-ligatures:normal;font-variant-caps:normal;font-variant-numeric:normal;font-variant-east-asian:normal;font-variation-settings:'wght' 400"
					d="m 523.64686,251.86223 v -32.1028 l 11.99445,-11.81806 28.22224,43.92086 h 16.40418 l -35.2778,-53.09309 26.10557,-25.75279 -8.46667,-8.99584 -38.98197,38.98197 v -75.67089 l -13.75835,1.94028 v 122.59036 z"/>
			<path
					id="proker-letter-5"
					style="font-style:normal;font-variant:normal;font-weight:normal;font-stretch:normal;font-size:176.389px;font-family:Catamaran;-inkscape-font-specification:'Catamaran, @wght=400';font-variant-ligatures:normal;font-variant-caps:normal;font-variant-numeric:normal;font-variant-east-asian:normal;font-variation-settings:'wght' 400"
					d="m 662.58076,211.29276 v -1.23472 q 0,-12.8764 -3.88056,-23.28335 -3.70417,-10.40695 -11.81806,-16.58057 -7.93751,-6.17361 -20.8139,-6.17361 -12.70001,0 -21.69585,5.82083 -8.81945,5.64445 -13.58195,15.69863 -4.58612,10.05417 -4.58612,23.28334 0,13.40557 4.93889,23.63613 4.9389,10.23056 14.81668,15.87501 10.05417,5.64445 25.04724,5.64445 6.35,0 11.64167,-1.23472 5.46806,-1.05834 10.05418,-2.99862 4.7625,-2.11666 8.81945,-4.40972 l -4.58612,-10.23056 q -6.70278,3.35139 -12.70001,5.46806 -5.99722,1.94027 -13.40556,1.94027 -10.58334,0 -17.10973,-4.05694 -6.5264,-4.05695 -9.7014,-11.11251 -2.99861,-7.05556 -3.52778,-16.0514 z m -61.73615,-9.52501 q 0.88194,-7.76111 3.70417,-13.58195 2.99861,-5.82084 8.11389,-8.99584 5.29167,-3.35139 12.8764,-3.35139 7.40834,0 12.17084,3.35139 4.93889,3.175 7.58473,8.99584 2.64583,5.82084 3.52778,13.58195 z"/>
			<path
					id="proker-letter-6"
					style="font-style:normal;font-variant:normal;font-weight:normal;font-stretch:normal;font-size:176.389px;font-family:Catamaran;-inkscape-font-specification:'Catamaran, @wght=400';font-variant-ligatures:normal;font-variant-caps:normal;font-variant-numeric:normal;font-variant-east-asian:normal;font-variation-settings:'wght' 400"
					d="M 693.10431,251.86223 V 192.9483 q 3.88056,-3.88055 8.99584,-7.40833 5.11528,-3.52778 10.75973,-5.82084 5.82084,-2.29306 10.75973,-2.29306 l -3.35139,-11.11251 q -4.58612,0 -10.05418,2.29306 -5.29167,2.29306 -10.23056,5.64445 -4.7625,3.175 -8.11389,5.82084 l -4.23334,-13.75835 h -8.29028 v 85.54867 z"/>
		</g>
	</g>
</svg>
